{
  "project_info": {
    "project_number": "33580244616",
    "firebase_url": "https://offlinetest-edbc5.firebaseio.com",
    "project_id": "offlinetest-edbc5",
    "storage_bucket": "offlinetest-edbc5.appspot.com"
  },
  "client": [
    {
      "client_info": {
        "mobilesdk_app_id": "1:33580244616:android:068c35026eb9bb3a",
        "android_client_info": {
          "package_name": "com.panatchai.thenotes"
        }
      },
      "oauth_client": [
        {
          "client_id": "33580244616-gj8kgmdqjqdqk8p9imrqa34vl217eubd.apps.googleusercontent.com",
          "client_type": 1,
          "android_info": {
            "package_name": "com.panatchai.thenotes",
            "certificate_hash": "1014050bc7cf3e71f2dde40423255f8850a68578"
          }
        },
        {
          "client_id": "33580244616-n8fjkvu1vofu4ir1gaus02vpr1eg6690.apps.googleusercontent.com",
          "client_type": 3
        }
      ],
      "api_key": [
        {
          "current_key": "AIzaSyC6VUtwJOI4Hd8QKVwEjSw0t4NbOkR-3xw"
        }
      ],
      "services": {
        "appinvite_service": {
          "other_platform_oauth_client": [
            {
              "client_id": "33580244616-n8fjkvu1vofu4ir1gaus02vpr1eg6690.apps.googleusercontent.com",
              "client_type": 3
            }
          ]
        }
      }
    }
  ],
  "configuration_version": "1"
}